<?xml version="1.0" encoding="utf-8"?>
<!-- Generator: Adobe Illustrator 19.1.0, SVG Export Plug-In . SVG Version: 6.00 Build 0)  -->
<svg version="1.1" id="Capa_1" xmlns="http://www.w3.org/2000/svg" xmlns:xlink="http://www.w3.org/1999/xlink" x="0px" y="0px"
	 viewBox="0 0 400 400" style="enable-background:new 0 0 400 400;" xml:space="preserve">
<g>
	<path d="M20.7,383v-41.2h30.7c9.5,0,16.7-2.3,21.7-7c4.9-4.6,7.4-15.3,7.4-32V85.9c0-11.9-2.3-20.1-6.9-24.5
		c-4.6-4.5-14-6.7-28.3-6.7H20.7V13.5h362.1v147.1h-40.6c-2.2-18.9-4.6-35.1-7.1-48.5c-2.6-13.4-6.8-24.3-12.6-32.9
		c-5.9-8.5-14.2-14.8-25-18.7c-10.8-3.9-25.3-5.9-43.6-5.9h-96.6v115.9h29.1c16.5,0,28.5-4.6,36.2-13.9c7.7-9.3,11.5-25.3,11.5-47.9
		v-7.2h40.6v186.2h-40.6v-13.4c0-22.7-3.8-38.7-11.5-48.2c-7.7-9.5-19.8-14.2-36.2-14.2h-29.1v129.9H267c12.4,0,23.1-2,32.1-6.1
		c9-4.1,16.5-10.8,22.5-20.1c6-9.3,10.7-21.2,14-35.7c3.3-14.5,5.5-32.1,6.6-52.9h40.6V383H20.7L20.7,383z"/>
</g>
</svg>
